<svg width="1170" height="703" viewBox="0 0 1170 703" fill="none" xmlns="http://www.w3.org/2000/svg">
<path d="M586.336 320.526L588.859 330.25L591.369 323.467L594.026 325.02L594.026 336.395L591.996 335.208L591.996 332.099L592.198 326.85L589.547 333.777L588.158 332.966L585.513 322.952L585.716 328.429L585.716 331.539L583.692 330.356L583.692 318.981L586.336 320.526ZM601.352 336.394L602.465 337.044L602.465 338.864L601.352 338.214L601.352 340.675L599.402 339.536L599.402 337.075L595.375 334.722L595.288 333.249L599.382 328.149L601.352 329.3L601.352 336.394ZM597.23 333.985L599.402 335.255L599.402 331.239L599.274 331.422L597.23 333.985Z" fill="black"/>
<path d="M631.336 345.526L633.859 355.25L636.369 348.467L639.026 350.02L639.026 361.395L636.996 360.208L636.996 357.099L637.198 351.85L634.547 358.777L633.158 357.966L630.513 347.952L630.716 353.429L630.716 356.539L628.692 355.356L628.692 343.981L631.336 345.526ZM646.352 361.394L647.465 362.044L647.465 363.864L646.352 363.214L646.352 365.675L644.402 364.536L644.402 362.075L640.375 359.722L640.288 358.249L644.382 353.149L646.352 354.3L646.352 361.394ZM642.23 358.985L644.402 360.255L644.402 356.239L644.274 356.422L642.23 358.985Z" fill="black"/>
<path d="M455.336 245.558L457.859 255.282L460.369 248.498L463.026 250.051L463.026 261.426L460.996 260.24L460.996 257.13L461.198 251.881L458.547 258.809L457.158 257.997L454.513 247.983L454.716 253.461L454.716 256.57L452.692 255.388L452.692 244.013L455.336 245.558ZM470.352 261.425L471.465 262.075L471.465 263.896L470.352 263.245L470.352 265.706L468.402 264.567L468.402 262.106L464.375 259.753L464.288 258.28L468.382 253.18L470.352 254.331L470.352 261.425ZM466.23 259.017L468.402 260.286L468.402 256.27L468.274 256.453L466.23 259.017Z" fill="black"/>
<path d="M500.336 270.526L502.859 280.25L505.369 273.467L508.026 275.02L508.026 286.395L505.996 285.208L505.996 282.099L506.198 276.85L503.547 283.777L502.158 282.966L499.513 272.952L499.716 278.429L499.716 281.539L497.692 280.356L497.692 268.981L500.336 270.526ZM515.352 286.394L516.465 287.044L516.465 288.864L515.352 288.214L515.352 290.675L513.402 289.536L513.402 287.075L509.375 284.722L509.288 283.249L513.382 278.149L515.352 279.3L515.352 286.394ZM511.23 283.985L513.402 285.255L513.402 281.239L513.274 281.422L511.23 283.985Z" fill="black"/>
</svg>
