<svg width="1170" height="703" viewBox="0 0 1170 703" fill="none" xmlns="http://www.w3.org/2000/svg">
<path d="M588.866 325.926L590.707 323.08L593.035 324.44L590.175 328.41L593.109 335.859L590.755 334.483L588.866 329.395L586.977 332.276L584.623 330.9L587.557 326.88L584.697 319.569L587.024 320.928L588.866 325.926ZM598.66 339.102L596.711 337.963L596.711 329.26L594.384 328.736L594.384 326.9L598.451 327.589L598.66 327.712L598.66 339.102Z" fill="black"/>
<path d="M633.866 350.926L635.707 348.08L638.035 349.44L635.175 353.41L638.109 360.859L635.755 359.483L633.866 354.395L631.977 357.276L629.623 355.9L632.557 351.88L629.697 344.569L632.024 345.928L633.866 350.926ZM643.66 364.102L641.711 362.963L641.711 354.26L639.384 353.736L639.384 351.9L643.451 352.589L643.66 352.712L643.66 364.102Z" fill="black"/>
<path d="M457.866 250.958L459.707 248.112L462.035 249.472L459.175 253.441L462.109 260.89L459.755 259.514L457.866 254.427L455.977 257.307L453.623 255.932L456.557 251.912L453.697 244.6L456.024 245.96L457.866 250.958ZM467.66 264.134L465.711 262.995L465.711 254.292L463.384 253.768L463.384 251.932L467.451 252.621L467.66 252.743L467.66 264.134Z" fill="black"/>
<path d="M502.866 275.926L504.707 273.08L507.035 274.44L504.175 278.41L507.109 285.859L504.755 284.483L502.866 279.395L500.977 282.276L498.623 280.9L501.557 276.88L498.697 269.569L501.024 270.928L502.866 275.926ZM512.66 289.102L510.711 287.963L510.711 279.26L508.384 278.736L508.384 276.9L512.451 277.589L512.66 277.712L512.66 289.102Z" fill="black"/>
</svg>
