<svg width="1170" height="703" viewBox="0 0 1170 703" fill="none" xmlns="http://www.w3.org/2000/svg">
<path d="M585.075 327L583.463 326.058L583.463 330.222L581.439 329.04L581.439 317.665L585.089 319.797C586.249 320.475 587.144 321.298 587.773 322.264C588.403 323.231 588.718 324.261 588.718 325.355C588.718 326.131 588.571 326.694 588.279 327.044C587.991 327.392 587.553 327.547 586.964 327.51L589.089 333.4L589.089 333.509L586.917 332.24L585.075 327ZM583.463 324.16L585.095 325.114C585.603 325.411 585.997 325.492 586.276 325.358C586.555 325.219 586.694 324.886 586.694 324.36C586.694 323.824 586.561 323.324 586.296 322.862C586.035 322.402 585.633 322.014 585.089 321.696L583.463 320.746L583.463 324.16ZM590.343 328.649L590.91 323.199L596.414 326.415L596.414 328.298L592.508 326.016L592.266 328.319C592.729 328.303 593.221 328.448 593.743 328.752C594.678 329.299 595.411 330.063 595.942 331.045C596.473 332.027 596.738 333.122 596.738 334.331C596.738 335.065 596.603 335.645 596.333 336.071C596.068 336.494 595.686 336.721 595.186 336.752C594.687 336.778 594.098 336.593 593.419 336.196C592.826 335.849 592.275 335.389 591.766 334.816C591.258 334.238 590.856 333.61 590.559 332.931C590.267 332.255 590.112 331.589 590.094 330.933L592.023 332.06C592.063 332.558 592.205 333.01 592.448 333.418C592.695 333.823 593.017 334.141 593.412 334.372C593.853 334.629 594.193 334.645 594.431 334.42C594.669 334.19 594.788 333.738 594.788 333.066C594.788 332.421 594.651 331.846 594.377 331.342C594.103 330.838 593.714 330.439 593.21 330.144C592.747 329.874 592.371 329.795 592.084 329.908L591.895 330.001L590.343 328.649ZM597.763 334.289C597.763 332.971 598.017 332.07 598.525 331.586C599.038 331.104 599.737 331.122 600.623 331.64C601.334 332.055 601.921 332.705 602.384 333.59L602.384 329.278L604.34 330.421L604.34 342.421L602.579 341.392L602.485 340.439C601.999 340.858 601.374 340.844 600.61 340.398C599.751 339.896 599.061 339.102 598.539 338.016C598.022 336.927 597.763 335.685 597.763 334.289ZM599.713 335.592C599.713 336.384 599.832 337.06 600.07 337.621C600.308 338.182 600.655 338.596 601.109 338.861C601.712 339.213 602.136 339.167 602.384 338.723L602.384 335.387C602.141 334.657 601.72 334.117 601.122 333.767C600.183 333.218 599.713 333.827 599.713 335.592Z" fill="black"/>
<path d="M630.075 352L628.463 351.058L628.463 355.222L626.439 354.04L626.439 342.665L630.089 344.797C631.249 345.475 632.144 346.298 632.773 347.264C633.403 348.231 633.718 349.261 633.718 350.355C633.718 351.131 633.571 351.694 633.279 352.044C632.991 352.392 632.553 352.547 631.964 352.51L634.089 358.4L634.089 358.509L631.917 357.24L630.075 352ZM628.463 349.16L630.095 350.114C630.603 350.411 630.997 350.492 631.276 350.358C631.555 350.219 631.694 349.886 631.694 349.36C631.694 348.824 631.561 348.324 631.296 347.862C631.035 347.402 630.633 347.014 630.089 346.696L628.463 345.746L628.463 349.16ZM635.343 353.649L635.91 348.199L641.414 351.415L641.414 353.298L637.508 351.016L637.266 353.319C637.729 353.303 638.221 353.448 638.743 353.752C639.678 354.299 640.411 355.063 640.942 356.045C641.473 357.027 641.738 358.122 641.738 359.331C641.738 360.065 641.603 360.645 641.333 361.071C641.068 361.494 640.686 361.721 640.186 361.752C639.687 361.778 639.098 361.593 638.419 361.196C637.826 360.849 637.275 360.389 636.766 359.816C636.258 359.238 635.856 358.61 635.559 357.931C635.267 357.255 635.112 356.589 635.094 355.933L637.023 357.06C637.063 357.558 637.205 358.01 637.448 358.418C637.695 358.823 638.017 359.141 638.412 359.372C638.853 359.629 639.193 359.645 639.431 359.42C639.669 359.19 639.788 358.738 639.788 358.066C639.788 357.421 639.651 356.846 639.377 356.342C639.103 355.838 638.714 355.439 638.21 355.144C637.747 354.874 637.371 354.795 637.084 354.908L636.895 355.001L635.343 353.649ZM642.763 359.289C642.763 357.971 643.017 357.07 643.525 356.586C644.038 356.104 644.737 356.122 645.623 356.64C646.334 357.055 646.921 357.705 647.384 358.59L647.384 354.278L649.34 355.421L649.34 367.421L647.579 366.392L647.485 365.439C646.999 365.858 646.374 365.844 645.61 365.398C644.751 364.896 644.061 364.102 643.539 363.016C643.022 361.927 642.763 360.685 642.763 359.289ZM644.713 360.592C644.713 361.384 644.832 362.06 645.07 362.621C645.308 363.182 645.655 363.596 646.109 363.861C646.712 364.213 647.136 364.167 647.384 363.723L647.384 360.387C647.141 359.657 646.72 359.117 646.122 358.767C645.183 358.218 644.713 358.827 644.713 360.592Z" fill="black"/>
<path d="M454.075 252.032L452.463 251.09L452.463 255.254L450.439 254.071L450.439 242.696L454.089 244.829C455.249 245.507 456.144 246.329 456.773 247.296C457.403 248.263 457.718 249.293 457.718 250.387C457.718 251.163 457.571 251.726 457.279 252.076C456.991 252.423 456.553 252.579 455.964 252.542L458.089 258.432L458.089 258.541L455.917 257.272L454.075 252.032ZM452.463 249.191L454.095 250.145C454.603 250.442 454.997 250.524 455.276 250.39C455.555 250.25 455.694 249.918 455.694 249.392C455.694 248.855 455.561 248.356 455.296 247.894C455.035 247.434 454.633 247.045 454.089 246.727L452.463 245.777L452.463 249.191ZM459.343 253.68L459.91 248.23L465.414 251.446L465.414 253.329L461.508 251.047L461.266 253.35C461.729 253.335 462.221 253.479 462.743 253.784C463.678 254.33 464.411 255.095 464.942 256.077C465.473 257.059 465.738 258.154 465.738 259.362C465.738 260.096 465.603 260.676 465.333 261.102C465.068 261.525 464.686 261.752 464.186 261.784C463.687 261.81 463.098 261.624 462.419 261.228C461.826 260.881 461.275 260.421 460.766 259.848C460.258 259.27 459.856 258.641 459.559 257.963C459.267 257.287 459.112 256.621 459.094 255.964L461.023 257.091C461.063 257.589 461.205 258.042 461.448 258.449C461.695 258.854 462.017 259.172 462.412 259.403C462.853 259.661 463.193 259.677 463.431 259.452C463.669 259.221 463.788 258.77 463.788 258.098C463.788 257.452 463.651 256.877 463.377 256.373C463.103 255.869 462.714 255.47 462.21 255.176C461.747 254.905 461.371 254.826 461.084 254.939L460.895 255.032L459.343 253.68ZM466.763 259.321C466.763 258.003 467.017 257.102 467.525 256.617C468.038 256.136 468.737 256.154 469.623 256.671C470.334 257.086 470.921 257.737 471.384 258.622L471.384 254.309L473.34 255.452L473.34 267.452L471.579 266.424L471.485 265.47C470.999 265.889 470.374 265.876 469.61 265.429C468.751 264.927 468.061 264.133 467.539 263.047C467.022 261.959 466.763 260.716 466.763 259.321ZM468.713 260.624C468.713 261.415 468.832 262.092 469.07 262.653C469.308 263.214 469.655 263.627 470.109 263.893C470.712 264.245 471.136 264.199 471.384 263.755L471.384 260.419C471.141 259.688 470.72 259.148 470.122 258.799C469.183 258.25 468.713 258.858 468.713 260.624Z" fill="black"/>
<path d="M499.075 277L497.463 276.058L497.463 280.222L495.439 279.04L495.439 267.665L499.089 269.797C500.249 270.475 501.144 271.298 501.773 272.264C502.403 273.231 502.718 274.261 502.718 275.355C502.718 276.131 502.571 276.694 502.279 277.044C501.991 277.392 501.553 277.547 500.964 277.51L503.089 283.4L503.089 283.509L500.917 282.24L499.075 277ZM497.463 274.16L499.095 275.114C499.603 275.411 499.997 275.492 500.276 275.358C500.555 275.219 500.694 274.886 500.694 274.36C500.694 273.824 500.561 273.324 500.296 272.862C500.035 272.402 499.633 272.014 499.089 271.696L497.463 270.746L497.463 274.16ZM504.343 278.649L504.91 273.199L510.414 276.415L510.414 278.298L506.508 276.016L506.266 278.319C506.729 278.303 507.221 278.448 507.743 278.752C508.678 279.299 509.411 280.063 509.942 281.045C510.473 282.027 510.738 283.122 510.738 284.331C510.738 285.065 510.603 285.645 510.333 286.071C510.068 286.494 509.686 286.721 509.186 286.752C508.687 286.778 508.098 286.593 507.419 286.196C506.826 285.849 506.275 285.389 505.766 284.816C505.258 284.238 504.856 283.61 504.559 282.931C504.267 282.255 504.112 281.589 504.094 280.933L506.023 282.06C506.063 282.558 506.205 283.01 506.448 283.418C506.695 283.823 507.017 284.141 507.412 284.372C507.853 284.629 508.193 284.645 508.431 284.42C508.669 284.19 508.788 283.738 508.788 283.066C508.788 282.421 508.651 281.846 508.377 281.342C508.103 280.838 507.714 280.439 507.21 280.144C506.747 279.874 506.371 279.795 506.084 279.908L505.895 280.001L504.343 278.649ZM511.763 284.289C511.763 282.971 512.017 282.07 512.525 281.586C513.038 281.104 513.737 281.122 514.623 281.64C515.334 282.055 515.921 282.705 516.384 283.59L516.384 279.278L518.34 280.421L518.34 292.421L516.579 291.392L516.485 290.439C515.999 290.858 515.374 290.844 514.61 290.398C513.751 289.896 513.061 289.102 512.539 288.016C512.022 286.927 511.763 285.685 511.763 284.289ZM513.713 285.592C513.713 286.384 513.832 287.06 514.07 287.621C514.308 288.182 514.655 288.596 515.109 288.861C515.712 289.213 516.136 289.167 516.384 288.723L516.384 285.387C516.141 284.657 515.72 284.117 515.122 283.767C514.183 283.218 513.713 283.827 513.713 285.592Z" fill="black"/>
</svg>
