<svg width="1170" height="703" viewBox="0 0 1170 703" fill="none" xmlns="http://www.w3.org/2000/svg">
<path d="M583.042 339.819L583.809 338.69L585.112 339.451L583.814 341.28L585.167 344.766L583.86 344.003L583.046 341.867L582.237 343.054L580.926 342.288L582.279 340.384L580.985 337.04L582.292 337.803L583.042 339.819ZM586.984 345.828L585.761 345.114L585.761 337.614L586.984 338.328L586.984 345.828ZM590.635 347.961C590.579 347.802 590.538 347.62 590.513 347.416C590.218 347.625 589.834 347.591 589.362 347.315C588.915 347.054 588.544 346.688 588.249 346.216C587.957 345.745 587.81 345.282 587.81 344.827C587.81 344.267 587.989 343.941 588.346 343.85C588.706 343.761 589.224 343.913 589.901 344.305L590.462 344.633L590.462 344.33C590.462 344.086 590.407 343.859 590.298 343.648C590.191 343.439 590.021 343.267 589.788 343.13C589.582 343.01 589.421 342.973 589.303 343.018C589.188 343.065 589.13 343.187 589.13 343.386L587.912 342.674C587.912 342.368 587.993 342.132 588.156 341.967C588.319 341.802 588.55 341.733 588.847 341.761C589.145 341.785 589.48 341.906 589.851 342.122C590.413 342.451 590.858 342.876 591.187 343.396C591.519 343.916 591.685 344.472 591.685 345.064L591.685 347.354C591.688 347.857 591.748 348.272 591.866 348.598L591.866 348.681L590.635 347.961ZM589.627 346.391C589.807 346.496 589.973 346.548 590.125 346.545C590.277 346.539 590.389 346.48 590.462 346.366L590.462 345.458L590.007 345.192C589.397 344.836 589.072 344.89 589.033 345.355L589.029 345.436C589.029 345.612 589.082 345.788 589.189 345.964C589.296 346.14 589.442 346.283 589.627 346.391ZM595.184 346.659C595.018 346.536 594.872 346.438 594.746 346.364C594.285 346.095 593.982 346.099 593.839 346.377L593.839 349.834L592.621 349.122L592.621 343.838L593.772 344.511L593.805 345.161C594.05 344.818 594.389 344.774 594.821 345.027C594.956 345.106 595.083 345.201 595.201 345.312L595.184 346.659ZM595.513 348.131C595.513 347.32 595.679 346.765 596.01 346.464C596.345 346.164 596.794 346.18 597.359 346.51C597.86 346.802 598.249 347.228 598.527 347.788L598.578 347.319L599.682 347.965L599.682 353.072C599.682 353.534 599.591 353.883 599.408 354.118C599.228 354.355 598.974 354.466 598.645 354.453C598.316 354.44 597.931 354.305 597.49 354.047C597.156 353.851 596.83 353.583 596.512 353.241C596.194 352.902 595.954 352.563 595.791 352.224L596.331 351.68C596.634 352.251 597.002 352.663 597.435 352.916C597.758 353.105 598.01 353.151 598.19 353.054C598.37 352.961 598.46 352.73 598.46 352.363L598.46 352.079C598.179 352.283 597.809 352.251 597.351 351.983C596.803 351.663 596.359 351.156 596.019 350.463C595.681 349.767 595.513 349.01 595.513 348.189L595.513 348.131ZM596.731 348.945C596.731 349.424 596.814 349.848 596.98 350.219C597.146 350.586 597.373 350.854 597.663 351.023C598.034 351.24 598.3 351.234 598.46 351.005L598.46 348.783C598.297 348.366 598.034 348.051 597.671 347.839C597.379 347.669 597.149 347.672 596.98 347.85C596.814 348.03 596.731 348.395 596.731 348.945ZM602.722 355.122C602.053 354.731 601.508 354.174 601.086 353.453C600.667 352.733 600.458 351.977 600.458 351.186L600.458 351.05C600.458 350.519 600.547 350.097 600.724 349.784C600.901 349.468 601.151 349.291 601.474 349.256C601.8 349.218 602.171 349.321 602.587 349.564C603.211 349.929 603.701 350.443 604.058 351.107C604.418 351.773 604.598 352.525 604.598 353.361L604.598 353.937L601.693 352.24C601.733 352.608 601.851 352.954 602.047 353.277C602.247 353.602 602.499 353.853 602.802 354.031C603.271 354.305 603.638 354.322 603.902 354.083L604.501 355.209C604.318 355.402 604.071 355.491 603.759 355.478C603.447 355.462 603.101 355.343 602.722 355.122ZM602.583 350.704C602.341 350.563 602.144 350.542 601.993 350.643C601.844 350.744 601.748 350.959 601.706 351.286L603.401 352.276L603.401 352.164C603.395 351.848 603.322 351.564 603.182 351.313C603.041 351.058 602.841 350.855 602.583 350.704Z" fill="black"/>
<path d="M628.042 364.819L628.809 363.69L630.112 364.451L628.814 366.28L630.167 369.766L628.86 369.003L628.046 366.867L627.237 368.054L625.926 367.288L627.279 365.384L625.985 362.04L627.292 362.803L628.042 364.819ZM631.984 370.828L630.761 370.114L630.761 362.614L631.984 363.328L631.984 370.828ZM635.635 372.961C635.579 372.802 635.538 372.62 635.513 372.416C635.218 372.625 634.834 372.591 634.362 372.315C633.915 372.054 633.544 371.688 633.249 371.216C632.957 370.745 632.81 370.282 632.81 369.827C632.81 369.267 632.989 368.941 633.346 368.85C633.706 368.761 634.224 368.913 634.901 369.305L635.462 369.633L635.462 369.33C635.462 369.086 635.407 368.859 635.298 368.648C635.191 368.439 635.021 368.267 634.788 368.13C634.582 368.01 634.421 367.973 634.303 368.018C634.188 368.065 634.13 368.187 634.13 368.386L632.912 367.674C632.912 367.368 632.993 367.132 633.156 366.967C633.319 366.802 633.55 366.733 633.847 366.761C634.145 366.785 634.48 366.906 634.851 367.122C635.413 367.451 635.858 367.876 636.187 368.396C636.519 368.916 636.685 369.472 636.685 370.064L636.685 372.354C636.688 372.857 636.748 373.272 636.866 373.598L636.866 373.681L635.635 372.961ZM634.627 371.391C634.807 371.496 634.973 371.548 635.125 371.545C635.277 371.539 635.389 371.48 635.462 371.366L635.462 370.458L635.007 370.192C634.397 369.836 634.072 369.89 634.033 370.355L634.029 370.436C634.029 370.612 634.082 370.788 634.189 370.964C634.296 371.14 634.442 371.283 634.627 371.391ZM640.184 371.659C640.018 371.536 639.872 371.438 639.746 371.364C639.285 371.095 638.982 371.099 638.839 371.377L638.839 374.834L637.621 374.122L637.621 368.838L638.772 369.511L638.805 370.161C639.05 369.818 639.389 369.774 639.821 370.027C639.956 370.106 640.083 370.201 640.201 370.312L640.184 371.659ZM640.513 373.131C640.513 372.32 640.679 371.765 641.01 371.464C641.345 371.164 641.794 371.18 642.359 371.51C642.86 371.802 643.249 372.228 643.527 372.788L643.578 372.319L644.682 372.965L644.682 378.072C644.682 378.534 644.591 378.883 644.408 379.118C644.228 379.355 643.974 379.466 643.645 379.453C643.316 379.44 642.931 379.305 642.49 379.047C642.156 378.851 641.83 378.583 641.512 378.241C641.194 377.902 640.954 377.563 640.791 377.224L641.331 376.68C641.634 377.251 642.002 377.663 642.435 377.916C642.758 378.105 643.01 378.151 643.19 378.054C643.37 377.961 643.46 377.73 643.46 377.363L643.46 377.079C643.179 377.283 642.809 377.251 642.351 376.983C641.803 376.663 641.359 376.156 641.019 375.463C640.681 374.767 640.513 374.01 640.513 373.189L640.513 373.131ZM641.731 373.945C641.731 374.424 641.814 374.848 641.98 375.219C642.146 375.586 642.373 375.854 642.663 376.023C643.034 376.24 643.3 376.234 643.46 376.005L643.46 373.783C643.297 373.366 643.034 373.051 642.671 372.839C642.379 372.669 642.149 372.672 641.98 372.85C641.814 373.03 641.731 373.395 641.731 373.945ZM647.722 380.122C647.053 379.731 646.508 379.174 646.086 378.453C645.667 377.733 645.458 376.977 645.458 376.186L645.458 376.05C645.458 375.519 645.547 375.097 645.724 374.784C645.901 374.468 646.151 374.291 646.474 374.256C646.8 374.218 647.171 374.321 647.587 374.564C648.211 374.929 648.701 375.443 649.058 376.107C649.418 376.773 649.598 377.525 649.598 378.361L649.598 378.937L646.693 377.24C646.733 377.608 646.851 377.954 647.047 378.277C647.247 378.602 647.499 378.853 647.802 379.031C648.271 379.305 648.638 379.322 648.902 379.083L649.501 380.209C649.318 380.402 649.071 380.491 648.759 380.478C648.447 380.462 648.101 380.343 647.722 380.122ZM647.583 375.704C647.341 375.563 647.144 375.542 646.993 375.643C646.844 375.744 646.748 375.959 646.706 376.286L648.401 377.276L648.401 377.164C648.395 376.848 648.322 376.564 648.182 376.313C648.041 376.058 647.841 375.855 647.583 375.704Z" fill="black"/>
<path d="M452.042 264.819L452.809 263.69L454.112 264.451L452.814 266.28L454.167 269.766L452.86 269.003L452.046 266.867L451.237 268.054L449.926 267.288L451.279 265.384L449.985 262.04L451.292 262.803L452.042 264.819ZM455.984 270.828L454.761 270.114L454.761 262.614L455.984 263.328L455.984 270.828ZM459.635 272.961C459.579 272.802 459.538 272.62 459.513 272.416C459.218 272.625 458.834 272.591 458.362 272.315C457.915 272.054 457.544 271.688 457.249 271.216C456.957 270.745 456.81 270.282 456.81 269.827C456.81 269.267 456.989 268.941 457.346 268.85C457.706 268.761 458.224 268.913 458.901 269.305L459.462 269.633L459.462 269.33C459.462 269.086 459.407 268.859 459.298 268.648C459.191 268.439 459.021 268.267 458.788 268.13C458.582 268.01 458.421 267.973 458.303 268.018C458.188 268.065 458.13 268.187 458.13 268.386L456.912 267.674C456.912 267.368 456.993 267.132 457.156 266.967C457.319 266.802 457.55 266.733 457.847 266.761C458.145 266.785 458.48 266.906 458.851 267.122C459.413 267.451 459.858 267.876 460.187 268.396C460.519 268.916 460.685 269.472 460.685 270.064L460.685 272.354C460.688 272.857 460.748 273.272 460.866 273.598L460.866 273.681L459.635 272.961ZM458.627 271.391C458.807 271.496 458.973 271.548 459.125 271.545C459.277 271.539 459.389 271.48 459.462 271.366L459.462 270.458L459.007 270.192C458.397 269.836 458.072 269.89 458.033 270.355L458.029 270.436C458.029 270.612 458.082 270.788 458.189 270.964C458.296 271.14 458.442 271.283 458.627 271.391ZM464.184 271.659C464.018 271.536 463.872 271.438 463.746 271.364C463.285 271.095 462.982 271.099 462.839 271.377L462.839 274.834L461.621 274.122L461.621 268.838L462.772 269.511L462.805 270.161C463.05 269.818 463.389 269.774 463.821 270.027C463.956 270.106 464.083 270.201 464.201 270.312L464.184 271.659ZM464.513 273.131C464.513 272.32 464.679 271.765 465.01 271.464C465.345 271.164 465.794 271.18 466.359 271.51C466.86 271.802 467.249 272.228 467.527 272.788L467.578 272.319L468.682 272.965L468.682 278.072C468.682 278.534 468.591 278.883 468.408 279.118C468.228 279.355 467.974 279.466 467.645 279.453C467.316 279.44 466.931 279.305 466.49 279.047C466.156 278.851 465.83 278.583 465.512 278.241C465.194 277.902 464.954 277.563 464.791 277.224L465.331 276.68C465.634 277.251 466.002 277.663 466.435 277.916C466.758 278.105 467.01 278.151 467.19 278.054C467.37 277.961 467.46 277.73 467.46 277.363L467.46 277.079C467.179 277.283 466.809 277.251 466.351 276.983C465.803 276.663 465.359 276.156 465.019 275.463C464.681 274.767 464.513 274.01 464.513 273.189L464.513 273.131ZM465.731 273.945C465.731 274.424 465.814 274.848 465.98 275.219C466.146 275.586 466.373 275.854 466.663 276.023C467.034 276.24 467.3 276.234 467.46 276.005L467.46 273.783C467.297 273.366 467.034 273.051 466.671 272.839C466.379 272.669 466.149 272.672 465.98 272.85C465.814 273.03 465.731 273.395 465.731 273.945ZM471.722 280.122C471.053 279.731 470.508 279.174 470.086 278.453C469.667 277.733 469.458 276.977 469.458 276.186L469.458 276.05C469.458 275.519 469.547 275.097 469.724 274.784C469.901 274.468 470.151 274.291 470.474 274.256C470.8 274.218 471.171 274.321 471.587 274.564C472.211 274.929 472.701 275.443 473.058 276.107C473.418 276.773 473.598 277.525 473.598 278.361L473.598 278.937L470.693 277.24C470.733 277.608 470.851 277.954 471.047 278.277C471.247 278.602 471.499 278.853 471.802 279.031C472.271 279.305 472.638 279.322 472.902 279.083L473.501 280.209C473.318 280.402 473.071 280.491 472.759 280.478C472.447 280.462 472.101 280.343 471.722 280.122ZM471.583 275.704C471.341 275.563 471.144 275.542 470.993 275.643C470.844 275.744 470.748 275.959 470.706 276.286L472.401 277.276L472.401 277.164C472.395 276.848 472.322 276.564 472.182 276.313C472.041 276.058 471.841 275.855 471.583 275.704Z" fill="black"/>
<path d="M497.042 289.819L497.809 288.69L499.112 289.451L497.814 291.28L499.167 294.766L497.86 294.003L497.046 291.867L496.237 293.054L494.926 292.288L496.279 290.384L494.985 287.04L496.292 287.803L497.042 289.819ZM500.984 295.828L499.761 295.114L499.761 287.614L500.984 288.328L500.984 295.828ZM504.635 297.961C504.579 297.802 504.538 297.62 504.513 297.416C504.218 297.625 503.834 297.591 503.362 297.315C502.915 297.054 502.544 296.688 502.249 296.216C501.957 295.745 501.81 295.282 501.81 294.827C501.81 294.267 501.989 293.941 502.346 293.85C502.706 293.761 503.224 293.913 503.901 294.305L504.462 294.633L504.462 294.33C504.462 294.086 504.407 293.859 504.298 293.648C504.191 293.439 504.021 293.267 503.788 293.13C503.582 293.01 503.421 292.973 503.303 293.018C503.188 293.065 503.13 293.187 503.13 293.386L501.912 292.674C501.912 292.368 501.993 292.132 502.156 291.967C502.319 291.802 502.55 291.733 502.847 291.761C503.145 291.785 503.48 291.906 503.851 292.122C504.413 292.451 504.858 292.876 505.187 293.396C505.519 293.916 505.685 294.472 505.685 295.064L505.685 297.354C505.688 297.857 505.748 298.272 505.866 298.598L505.866 298.681L504.635 297.961ZM503.627 296.391C503.807 296.496 503.973 296.548 504.125 296.545C504.277 296.539 504.389 296.48 504.462 296.366L504.462 295.458L504.007 295.192C503.397 294.836 503.072 294.89 503.033 295.355L503.029 295.436C503.029 295.612 503.082 295.788 503.189 295.964C503.296 296.14 503.442 296.283 503.627 296.391ZM509.184 296.659C509.018 296.536 508.872 296.438 508.746 296.364C508.285 296.095 507.982 296.099 507.839 296.377L507.839 299.834L506.621 299.122L506.621 293.838L507.772 294.511L507.805 295.161C508.05 294.818 508.389 294.774 508.821 295.027C508.956 295.106 509.083 295.201 509.201 295.312L509.184 296.659ZM509.513 298.131C509.513 297.32 509.679 296.765 510.01 296.464C510.345 296.164 510.794 296.18 511.359 296.51C511.86 296.802 512.249 297.228 512.527 297.788L512.578 297.319L513.682 297.965L513.682 303.072C513.682 303.534 513.591 303.883 513.408 304.118C513.228 304.355 512.974 304.466 512.645 304.453C512.316 304.44 511.931 304.305 511.49 304.047C511.156 303.851 510.83 303.583 510.512 303.241C510.194 302.902 509.954 302.563 509.791 302.224L510.331 301.68C510.634 302.251 511.002 302.663 511.435 302.916C511.758 303.105 512.01 303.151 512.19 303.054C512.37 302.961 512.46 302.73 512.46 302.363L512.46 302.079C512.179 302.283 511.809 302.251 511.351 301.983C510.803 301.663 510.359 301.156 510.019 300.463C509.681 299.767 509.513 299.01 509.513 298.189L509.513 298.131ZM510.731 298.945C510.731 299.424 510.814 299.848 510.98 300.219C511.146 300.586 511.373 300.854 511.663 301.023C512.034 301.24 512.3 301.234 512.46 301.005L512.46 298.783C512.297 298.366 512.034 298.051 511.671 297.839C511.379 297.669 511.149 297.672 510.98 297.85C510.814 298.03 510.731 298.395 510.731 298.945ZM516.722 305.122C516.053 304.731 515.508 304.174 515.086 303.453C514.667 302.733 514.458 301.977 514.458 301.186L514.458 301.05C514.458 300.519 514.547 300.097 514.724 299.784C514.901 299.468 515.151 299.291 515.474 299.256C515.8 299.218 516.171 299.321 516.587 299.564C517.211 299.929 517.701 300.443 518.058 301.107C518.418 301.773 518.598 302.525 518.598 303.361L518.598 303.937L515.693 302.24C515.733 302.608 515.851 302.954 516.047 303.277C516.247 303.602 516.499 303.853 516.802 304.031C517.271 304.305 517.638 304.322 517.902 304.083L518.501 305.209C518.318 305.402 518.071 305.491 517.759 305.478C517.447 305.462 517.101 305.343 516.722 305.122ZM516.583 300.704C516.341 300.563 516.144 300.542 515.993 300.643C515.844 300.744 515.748 300.959 515.706 301.286L517.401 302.276L517.401 302.164C517.395 301.848 517.322 301.564 517.182 301.313C517.041 301.058 516.841 300.855 516.583 300.704Z" fill="black"/>
</svg>
