<svg width="1170" height="703" viewBox="0 0 1170 703" fill="none" xmlns="http://www.w3.org/2000/svg">
<path d="M589.878 333.971L587.854 332.788L587.854 321.413L589.878 322.596L589.878 333.971ZM593.534 329.419L594.573 330.026C595.067 330.315 595.434 330.386 595.672 330.239C595.91 330.092 596.03 329.781 596.03 329.307C596.03 328.849 595.91 328.423 595.672 328.028C595.438 327.636 595.114 327.319 594.701 327.078C594.328 326.86 594.015 326.797 593.763 326.889C593.511 326.977 593.385 327.21 593.385 327.59L591.436 326.451C591.436 325.858 591.573 325.407 591.847 325.098C592.126 324.787 592.513 324.643 593.008 324.667C593.507 324.693 594.055 324.88 594.654 325.23C595.692 325.837 596.506 326.601 597.095 327.524C597.684 328.441 597.979 329.405 597.979 330.415C597.979 330.936 597.842 331.335 597.568 331.612C597.293 331.889 596.933 332.015 596.488 331.989C597.041 332.542 597.453 333.126 597.723 333.742C597.997 334.361 598.134 334.982 598.134 335.607C598.134 336.618 597.815 337.241 597.176 337.477C596.542 337.716 595.701 337.53 594.654 336.917C593.673 336.345 592.87 335.576 592.245 334.612C591.625 333.65 591.315 332.677 591.315 331.693L593.264 332.832C593.264 333.259 593.401 333.688 593.675 334.119C593.954 334.553 594.296 334.888 594.701 335.125C595.164 335.395 595.526 335.466 595.787 335.337C596.052 335.206 596.185 334.906 596.185 334.437C596.185 333.302 595.645 332.419 594.566 331.788L593.534 331.185L593.534 329.419Z" fill="black"/>
<path d="M634.878 358.971L632.854 357.788L632.854 346.413L634.878 347.596L634.878 358.971ZM638.534 354.419L639.573 355.026C640.067 355.315 640.434 355.386 640.672 355.239C640.91 355.092 641.03 354.781 641.03 354.307C641.03 353.849 640.91 353.423 640.672 353.028C640.438 352.636 640.114 352.319 639.701 352.078C639.328 351.86 639.015 351.797 638.763 351.889C638.511 351.977 638.385 352.21 638.385 352.59L636.436 351.451C636.436 350.858 636.573 350.407 636.847 350.098C637.126 349.787 637.513 349.643 638.008 349.667C638.507 349.693 639.055 349.88 639.654 350.23C640.692 350.837 641.506 351.601 642.095 352.524C642.684 353.441 642.979 354.405 642.979 355.415C642.979 355.936 642.842 356.335 642.568 356.612C642.293 356.889 641.933 357.015 641.488 356.989C642.041 357.542 642.453 358.126 642.723 358.742C642.997 359.361 643.134 359.982 643.134 360.607C643.134 361.618 642.815 362.241 642.176 362.477C641.542 362.716 640.701 362.53 639.654 361.917C638.673 361.345 637.87 360.576 637.245 359.612C636.625 358.65 636.315 357.677 636.315 356.693L638.264 357.832C638.264 358.259 638.401 358.688 638.675 359.119C638.954 359.553 639.296 359.888 639.701 360.125C640.164 360.395 640.526 360.466 640.787 360.337C641.052 360.206 641.185 359.906 641.185 359.437C641.185 358.302 640.645 357.419 639.566 356.788L638.534 356.185L638.534 354.419Z" fill="black"/>
<path d="M458.878 259.002L456.854 257.82L456.854 246.445L458.878 247.627L458.878 259.002ZM462.534 254.451L463.573 255.058C464.067 255.347 464.434 255.418 464.672 255.271C464.91 255.123 465.03 254.813 465.03 254.339C465.03 253.88 464.91 253.454 464.672 253.06C464.438 252.668 464.114 252.351 463.701 252.109C463.328 251.891 463.015 251.828 462.763 251.921C462.511 252.008 462.385 252.242 462.385 252.622L460.436 251.483C460.436 250.889 460.573 250.438 460.847 250.13C461.126 249.819 461.513 249.675 462.008 249.698C462.507 249.724 463.055 249.912 463.654 250.261C464.692 250.868 465.506 251.633 466.095 252.555C466.684 253.472 466.979 254.436 466.979 255.447C466.979 255.967 466.842 256.366 466.568 256.644C466.293 256.921 465.933 257.047 465.488 257.021C466.041 257.573 466.453 258.157 466.723 258.773C466.997 259.392 467.134 260.014 467.134 260.639C467.134 261.649 466.815 262.273 466.176 262.509C465.542 262.748 464.701 262.561 463.654 261.949C462.673 261.376 461.87 260.608 461.245 259.643C460.625 258.682 460.315 257.709 460.315 256.724L462.264 257.863C462.264 258.291 462.401 258.72 462.675 259.151C462.954 259.585 463.296 259.92 463.701 260.156C464.164 260.427 464.526 260.498 464.787 260.369C465.052 260.237 465.185 259.937 465.185 259.469C465.185 258.333 464.645 257.45 463.566 256.819L462.534 256.216L462.534 254.451Z" fill="black"/>
<path d="M503.878 283.971L501.854 282.788L501.854 271.413L503.878 272.596L503.878 283.971ZM507.534 279.419L508.573 280.026C509.067 280.315 509.434 280.386 509.672 280.239C509.91 280.092 510.03 279.781 510.03 279.307C510.03 278.849 509.91 278.423 509.672 278.028C509.438 277.636 509.114 277.319 508.701 277.078C508.328 276.86 508.015 276.797 507.763 276.889C507.511 276.977 507.385 277.21 507.385 277.59L505.436 276.451C505.436 275.858 505.573 275.407 505.847 275.098C506.126 274.787 506.513 274.643 507.008 274.667C507.507 274.693 508.055 274.88 508.654 275.23C509.692 275.837 510.506 276.601 511.095 277.524C511.684 278.441 511.979 279.405 511.979 280.415C511.979 280.936 511.842 281.335 511.568 281.612C511.293 281.889 510.933 282.015 510.488 281.989C511.041 282.542 511.453 283.126 511.723 283.742C511.997 284.361 512.134 284.982 512.134 285.607C512.134 286.618 511.815 287.241 511.176 287.477C510.542 287.716 509.701 287.53 508.654 286.917C507.673 286.345 506.87 285.576 506.245 284.612C505.625 283.65 505.315 282.677 505.315 281.693L507.264 282.832C507.264 283.259 507.401 283.688 507.675 284.119C507.954 284.553 508.296 284.888 508.701 285.125C509.164 285.395 509.526 285.466 509.787 285.337C510.052 285.206 510.185 284.906 510.185 284.437C510.185 283.302 509.645 282.419 508.566 281.788L507.534 281.185L507.534 279.419Z" fill="black"/>
</svg>
