<svg width="1170" height="703" viewBox="0 0 1170 703" fill="none" xmlns="http://www.w3.org/2000/svg">
<rect width="2" height="167" transform="matrix(0.866025 0.5 -0.866025 0.5 402.702 416.5)" fill="black"/>
<path d="M389.725 416.992C389.762 416.971 410.51 412.992 410.507 413.007C410.499 413.056 403.591 425.001 403.573 424.997C403.562 424.994 402.671 423.705 401.593 422.134L399.634 419.276L394.689 418.148C391.97 417.527 389.737 417.015 389.728 417.01C389.719 417.004 389.718 416.996 389.725 416.992L389.725 416.992Z" fill="black"/>
</svg>
