<svg width="1170" height="703" viewBox="0 0 1170 703" fill="none" xmlns="http://www.w3.org/2000/svg">
<path d="M733.883 550L693 574V566.471L734 542.588L733.883 550Z" fill="#4B612A"/>
<path d="M652 550.235L693 574V566.471L652 542.824V550.235Z" fill="#749B3F"/>
<path d="M693 566.471L652 542.824L693 519.059L734 542.824L693 566.471Z" fill="#B6C99C"/>
<path d="M700.284 529.529L670.092 546.941V521.882L689.828 512.588L700.284 529.529Z" fill="#4B612A"/>
<path d="M712.501 536.706L682.427 554.118V527.412L712.501 510V536.706Z" fill="#4B612A"/>
<path d="M713.324 510.589L682.427 527.413L674.791 522.942L704.865 505.53L713.324 510.589Z" fill="#B6C99C"/>
<path d="M725.072 543.647L694.88 561.059V526.235L725.072 508.824V543.647Z" fill="#4B612A"/>
<path d="M725.071 508.824L694.879 526.235L686.656 521.412L716.73 504L725.071 508.824Z" fill="#B6C99C"/>
<path d="M694.88 561.059L686.656 556.235V521.412L694.88 526.235V561.059Z" fill="#749B3F"/>
<path d="M700.284 512.588L670.092 530L662.926 525.765L693 508.353L700.284 512.588Z" fill="#B6C99C"/>
<path d="M682.427 554.118L674.791 549.647V522.941L682.427 527.412V554.118Z" fill="#749B3F"/>
<path d="M670.092 546.941L662.926 542.823V525.765L670.092 530V546.941Z" fill="#749B3F"/>
<path d="M705.805 528.941C704.748 529.53 703.925 530.353 703.338 531.53C702.75 532.706 702.398 533.882 702.398 535.294C702.398 536.588 702.75 537.412 703.338 537.765C703.925 538.118 704.748 538.118 705.687 537.529C706.51 537.059 707.097 536.471 707.567 535.765C708.037 535.059 708.389 534.118 708.624 533.177L707.215 533.53C707.097 534.235 706.862 534.706 706.627 535.177C706.392 535.647 706.04 536 705.57 536.235C704.983 536.588 704.63 536.588 704.278 536.353C703.925 536.118 703.808 535.412 703.808 534.471C703.808 533.53 703.925 532.706 704.278 532.118C704.63 531.53 705.1 531.059 705.57 530.706C705.922 530.471 706.275 530.353 706.51 530.471C706.745 530.588 706.98 530.824 707.097 531.177L708.507 530C708.389 529.412 708.037 529.059 707.802 528.941C707.332 528.235 706.627 528.353 705.805 528.941Z" fill="black"/>
<path d="M718.728 521.529L717.318 522.353L716.143 528.706L714.851 523.765L713.206 524.706L711.796 531.177L710.739 526.118L709.212 527.059L710.974 534.235L712.619 533.294L714.029 526.353L715.438 531.647L716.965 530.706L718.728 521.529Z" fill="black"/>
<path d="M707.097 538.588L704.865 539.882L703.573 546.235L702.281 541.412L700.049 542.706L700.166 550.824L701.458 550.118V543.647L702.868 549.294L704.278 548.471L705.688 541.177L705.805 547.647L707.097 546.824V538.588Z" fill="black"/>
<path d="M714.381 534.471L712.971 535.294V540.706L710.034 536.941L708.624 537.765V546L709.917 545.176V539.882L712.853 543.529L714.381 542.588V534.471Z" fill="black"/>
<path d="M721.077 530.588L715.321 533.882V535.294L717.553 534V540.824L718.963 539.882V533.177L721.077 531.882V530.588Z" fill="black"/>
</svg>
