<svg width="1170" height="703" viewBox="0 0 1170 703" fill="none" xmlns="http://www.w3.org/2000/svg">
<style>
:root {
  --half-cell-x: 43.4px;
  --half-cell-y: 25px;
  --ec2-duration: 30000ms;
}

#tile {
  animation-name: ec2;
  animation-duration: var(--ec2-duration);
  animation-iteration-count: infinite;
  animation-timing-function: linear;
  transform: translate(
    calc(var(--half-cell-x) * 5 ), 
    calc(var(--half-cell-y) * 5 )
  );
}
/* step size: 4 */
/* ([x1]+[x2]...)*4 + 9 */
/*  0- 9   [6]35   [2]41   [1]45   -55   [1]59   [2]67   [6]91   -100 */

/* step size: 1 */
/*  0- 2.25 |  8.75 | 10.25 | 11.25-13.75 | 14.75 | 16.75 | 22.75- 25 */
/* 25-27.25 | 33.75 | 35.25 | 36.25-38.75 | 39.75 | 41.75 | 47.75- 50 */
/* 50-52.25 | 58.75 | 60.25 | 61.25-63.75 | 64.75 | 66.75 | 72.75- 75 */
/* 75-77.25 | 83.75 | 85.25 | 86.25-88.75 | 89.75 | 91.75 | 97.75-100 */

@keyframes ec2{
  0%, 2.25% {
    transform: translate(
      calc(var(--half-cell-x) * 5 ), 
      calc(var(--half-cell-y) * 5 )
    );
  }
  /* 6 cells  */
  8.75% {
    transform: translate(
      calc(var(--half-cell-x) * 11 ), 
      calc(var(--half-cell-y) * -1 )
    );
  }
  /* 2 cells  */
  10.25% {
    transform: translate(
      calc(var(--half-cell-x) * 9 ), 
      calc(var(--half-cell-y) * -3 )
    );
  }
  /* 1 cell */
  11.25%, 13.75% {
    transform: translate(
      calc(var(--half-cell-x) * 10 ), 
      calc(var(--half-cell-y) * -4 )
    );
  }
  /* back */
  /* 1 cell */
  14.75% {
    transform: translate(
      calc(var(--half-cell-x) * 9 ), 
      calc(var(--half-cell-y) * -3 )
    );
  }
  /* 2 cells  */
  16.75% {
    transform: translate(
      calc(var(--half-cell-x) * 11 ), 
      calc(var(--half-cell-y) * -1 )
    );
  }
  /* 6 cells  */
  22.75%, 25% {
    transform: translate(
      calc(var(--half-cell-x) * 5 ), 
      calc(var(--half-cell-y) * 5 )
    );
  }
  
  25%, 27.25% {
    transform: translate(
      calc(var(--half-cell-x) * 5 ), 
      calc(var(--half-cell-y) * 5 )
    );
  }
  /* 6 cells  */
  33.75% {
    transform: translate(
      calc(var(--half-cell-x) * 11 ), 
      calc(var(--half-cell-y) * -1 )
    );
  }
  /* 2 cells  */
  35.25% {
    transform: translate(
      calc(var(--half-cell-x) * 10 ), 
      calc(var(--half-cell-y) * -2 )
    );
  }
  /* 1 cell */
  36.25%, 38.75% {
    transform: translate(
      calc(var(--half-cell-x) * 11 ), 
      calc(var(--half-cell-y) * -3 )
    );
  }
  /* back */
  /* 1 cell */
  39.75% {
    transform: translate(
      calc(var(--half-cell-x) * 10 ), 
      calc(var(--half-cell-y) * -2 )
    );
  }
  /* 2 cells  */
  41.75% {
    transform: translate(
      calc(var(--half-cell-x) * 11 ), 
      calc(var(--half-cell-y) * -1 )
    );
  }
  /* 6 cells  */
  47.75%, 50% {
    transform: translate(
      calc(var(--half-cell-x) * 5 ), 
      calc(var(--half-cell-y) * 5 )
    );
  }

  50%, 52.25% {
    transform: translate(
      calc(var(--half-cell-x) * 5 ), 
      calc(var(--half-cell-y) * 5 )
    );
  }
  /* 6 cells  */
  58.75% {
    transform: translate(
      calc(var(--half-cell-x) * 11 ), 
      calc(var(--half-cell-y) * -1 )
    );
  }
  /* 2 cells  */
  60.25% {
    transform: translate(
      calc(var(--half-cell-x) * 12 ), 
      calc(var(--half-cell-y) * 0 )
    );
  }
  /* 1 cell */
  61.25%, 63.75% {
    transform: translate(
      calc(var(--half-cell-x) * 13 ), 
      calc(var(--half-cell-y) * -1 )
    );
  }
  /* back */
  /* 1 cell */
  64.75% {
    transform: translate(
      calc(var(--half-cell-x) * 12 ), 
      calc(var(--half-cell-y) * 0 )
    );
  }
  /* 2 cells  */
  66.75% {
    transform: translate(
      calc(var(--half-cell-x) * 11 ), 
      calc(var(--half-cell-y) * -1 )
    );
  }
  /* 6 cells  */
  72.75%, 75% {
    transform: translate(
      calc(var(--half-cell-x) * 5 ), 
      calc(var(--half-cell-y) * 5 )
    );
  }

  75%, 77.25% {
    transform: translate(
      calc(var(--half-cell-x) * 5 ), 
      calc(var(--half-cell-y) * 5 )
    );
  }
  /* 6 cells  */
  83.75% {
    transform: translate(
      calc(var(--half-cell-x) * 11 ), 
      calc(var(--half-cell-y) * -1 )
    );
  }
  /* 2 cells  */
  85.25% {
    transform: translate(
      calc(var(--half-cell-x) * 13 ), 
      calc(var(--half-cell-y) * 1 )
    );
  }
  /* 1 cell */
  86.25%, 88.75% {
    transform: translate(
      calc(var(--half-cell-x) * 14 ), 
      calc(var(--half-cell-y) * 0 )
    );
  }
  /* back */
  /* 1 cell */
  89.75% {
    transform: translate(
      calc(var(--half-cell-x) * 13 ), 
      calc(var(--half-cell-y) * 1 )
    );
  }
  /* 2 cells  */
  91.75% {
    transform: translate(
      calc(var(--half-cell-x) * 11 ), 
      calc(var(--half-cell-y) * -1 )
    );
  }
  /* 6 cells  */
  97.75%, 100% {
    transform: translate(
      calc(var(--half-cell-x) * 5 ), 
      calc(var(--half-cell-y) * 5 )
    );
  }
}
</style>

<g id="tile">
<path transform="translate(25,362)" d="M34.6023 13.1582L17.3259 23.3646L17.3259 20.1626L34.652 10.0063L34.6023 13.1582Z" fill="hsl(60, 100%, 35%)"/>
<path transform="translate(25,362)" d="M1.37533e-07 13.2583L17.326 23.3646L17.326 20.1626L0 10.1063L1.37533e-07 13.2583Z" fill="hsl(60, 63%, 50%)"/>
<path transform="translate(25,362)" d="M17.326 20.1628L4.40978e-07 10.1064L17.326 -7.19292e-06L34.652 10.1064L17.326 20.1628Z" fill="hsl(60, 78%, 70%)"/>
</g>
</svg>
