<svg width="1170" height="703" viewBox="0 0 1170 703" fill="none" xmlns="http://www.w3.org/2000/svg">
<rect width="38.9667" height="5.02366" transform="matrix(0.863415 0.504495 -0.863415 0.504495 601.348 294)" fill="#F4BB88"/>
<rect width="5.02306" height="39.8009" transform="matrix(0.863415 -0.504495 6.5402e-08 1 630.663 316.189)" fill="#903E00"/>
<rect width="38.9882" height="39.8035" transform="matrix(0.863415 0.504495 2.18652e-08 1 597 296.527)" fill="#EB8325"/>
<rect width="38.9667" height="5.02366" transform="matrix(0.863415 0.504495 -0.863415 0.504495 594.348 298)" fill="#F4BB88"/>
<rect width="5.02306" height="39.8009" transform="matrix(0.863415 -0.504495 6.5402e-08 1 623.663 320.189)" fill="#903E00"/>
<rect width="38.9882" height="39.8035" transform="matrix(0.863415 0.504495 2.18652e-08 1 590 300.527)" fill="#EB8325"/>
<rect width="38.9667" height="5.02366" transform="matrix(0.863415 0.504495 -0.863415 0.504495 587.348 302)" fill="#F4BB88"/>
<rect width="5.02306" height="39.8009" transform="matrix(0.863415 -0.504495 6.5402e-08 1 616.663 324.189)" fill="#903E00"/>
<rect width="38.9882" height="39.8035" transform="matrix(0.863415 0.504495 2.18652e-08 1 583 304.527)" fill="#EB8325"/>
<rect width="38.9667" height="5.02366" transform="matrix(0.863415 0.504495 -0.863415 0.504495 580.348 306)" fill="#F4BB88"/>
<rect width="5.02306" height="39.8009" transform="matrix(0.863415 -0.504495 6.5402e-08 1 609.663 328.189)" fill="#903E00"/>
<rect width="38.9882" height="39.8035" transform="matrix(0.863415 0.504495 2.18652e-08 1 576 308.527)" fill="#EB8325"/>
<rect width="38.9667" height="5.02366" transform="matrix(0.863415 0.504495 -0.863415 0.504495 646.348 319)" fill="#F4BB88"/>
<rect width="5.02306" height="39.8009" transform="matrix(0.863415 -0.504495 6.5402e-08 1 675.663 341.189)" fill="#903E00"/>
<rect width="38.9882" height="39.8035" transform="matrix(0.863415 0.504495 2.18652e-08 1 642 321.527)" fill="#EB8325"/>
<rect width="38.9667" height="5.02366" transform="matrix(0.863415 0.504495 -0.863415 0.504495 639.348 323)" fill="#F4BB88"/>
<rect width="5.02306" height="39.8009" transform="matrix(0.863415 -0.504495 6.5402e-08 1 668.663 345.189)" fill="#903E00"/>
<rect width="38.9882" height="39.8035" transform="matrix(0.863415 0.504495 2.18652e-08 1 635 325.527)" fill="#EB8325"/>
<rect width="38.9667" height="5.02366" transform="matrix(0.863415 0.504495 -0.863415 0.504495 632.348 327)" fill="#F4BB88"/>
<rect width="5.02306" height="39.8009" transform="matrix(0.863415 -0.504495 6.5402e-08 1 661.663 349.189)" fill="#903E00"/>
<rect width="38.9882" height="39.8035" transform="matrix(0.863415 0.504495 2.18652e-08 1 628 329.527)" fill="#EB8325"/>
<rect width="38.9667" height="5.02366" transform="matrix(0.863415 0.504495 -0.863415 0.504495 625.348 331)" fill="#F4BB88"/>
<rect width="5.02306" height="39.8009" transform="matrix(0.863415 -0.504495 6.5402e-08 1 654.663 353.189)" fill="#903E00"/>
<rect width="38.9882" height="39.8035" transform="matrix(0.863415 0.504495 2.18652e-08 1 621 333.527)" fill="#EB8325"/>
<rect width="38.9667" height="5.02366" transform="matrix(0.863415 0.504495 -0.863415 0.504495 470.348 219)" fill="#F4BB88"/>
<rect width="5.02306" height="39.8009" transform="matrix(0.863415 -0.504495 6.5402e-08 1 499.663 241.189)" fill="#903E00"/>
<rect width="38.9882" height="39.8035" transform="matrix(0.863415 0.504495 2.18652e-08 1 466 221.527)" fill="#EB8325"/>
<rect width="38.9667" height="5.02366" transform="matrix(0.863415 0.504495 -0.863415 0.504495 463.348 223)" fill="#F4BB88"/>
<rect width="5.02306" height="39.8009" transform="matrix(0.863415 -0.504495 6.5402e-08 1 492.663 245.189)" fill="#903E00"/>
<rect width="38.9882" height="39.8035" transform="matrix(0.863415 0.504495 2.18652e-08 1 459 225.527)" fill="#EB8325"/>
<rect width="38.9667" height="5.02366" transform="matrix(0.863415 0.504495 -0.863415 0.504495 456.348 227)" fill="#F4BB88"/>
<rect width="5.02306" height="39.8009" transform="matrix(0.863415 -0.504495 6.5402e-08 1 485.663 249.189)" fill="#903E00"/>
<rect width="38.9882" height="39.8035" transform="matrix(0.863415 0.504495 2.18652e-08 1 452 229.527)" fill="#EB8325"/>
<rect width="38.9667" height="5.02366" transform="matrix(0.863415 0.504495 -0.863415 0.504495 449.348 231)" fill="#F4BB88"/>
<rect width="5.02306" height="39.8009" transform="matrix(0.863415 -0.504495 6.5402e-08 1 478.663 253.189)" fill="#903E00"/>
<rect width="38.9882" height="39.8035" transform="matrix(0.863415 0.504495 2.18652e-08 1 445 233.527)" fill="#EB8325"/>
<rect width="38.9667" height="5.02366" transform="matrix(0.863415 0.504495 -0.863415 0.504495 515.348 244)" fill="#F4BB88"/>
<rect width="5.02306" height="39.8009" transform="matrix(0.863415 -0.504495 6.5402e-08 1 544.663 266.189)" fill="#903E00"/>
<rect width="38.9882" height="39.8035" transform="matrix(0.863415 0.504495 2.18652e-08 1 511 246.527)" fill="#EB8325"/>
<rect width="38.9667" height="5.02366" transform="matrix(0.863415 0.504495 -0.863415 0.504495 508.348 248)" fill="#F4BB88"/>
<rect width="5.02306" height="39.8009" transform="matrix(0.863415 -0.504495 6.5402e-08 1 537.663 270.189)" fill="#903E00"/>
<rect width="38.9882" height="39.8035" transform="matrix(0.863415 0.504495 2.18652e-08 1 504 250.527)" fill="#EB8325"/>
<rect width="38.9667" height="5.02366" transform="matrix(0.863415 0.504495 -0.863415 0.504495 501.348 252)" fill="#F4BB88"/>
<rect width="5.02306" height="39.8009" transform="matrix(0.863415 -0.504495 6.5402e-08 1 530.663 274.189)" fill="#903E00"/>
<rect width="38.9882" height="39.8035" transform="matrix(0.863415 0.504495 2.18652e-08 1 497 254.527)" fill="#EB8325"/>
<path d="M501.614 272.055C501.313 272.303 500.897 272.271 500.366 271.961C499.877 271.675 499.503 271.294 499.245 270.817C498.989 270.342 498.858 269.789 498.852 269.158L498.852 265.696L500.071 266.408L500.071 269.821C500.071 270.371 500.287 270.772 500.72 271.025C501.133 271.267 501.417 271.266 501.572 271.025L501.572 267.285L502.794 267.999L502.794 273.282L501.648 272.612L501.614 272.055ZM506.083 272.728L503.709 271.341L503.709 270.203L506.083 271.59L506.083 272.728ZM509.97 277.475L508.751 276.763L508.751 271.323L507.297 270.996L507.297 269.849L509.839 270.279L509.97 270.356L509.97 277.475ZM515.969 275.76C515.969 276.105 515.894 276.368 515.746 276.548C515.597 276.728 515.391 276.821 515.13 276.828C515.428 277.168 515.664 277.535 515.838 277.93C516.013 278.322 516.1 278.714 516.1 279.108C516.1 279.74 515.914 280.131 515.543 280.282C515.172 280.43 514.668 280.317 514.03 279.945C513.392 279.572 512.886 279.092 512.512 278.506C512.138 277.92 511.951 277.313 511.951 276.684C511.951 276.29 512.038 275.998 512.213 275.807C512.387 275.616 512.622 275.525 512.917 275.535C512.655 275.222 512.45 274.889 512.301 274.535C512.155 274.183 512.082 273.834 512.082 273.489C512.082 272.884 512.256 272.504 512.605 272.349C512.953 272.192 513.427 272.288 514.025 272.637C514.621 272.986 515.093 273.441 515.442 274.002C515.793 274.562 515.969 275.148 515.969 275.76ZM514.877 278.291C514.877 277.982 514.8 277.689 514.645 277.414C514.491 277.138 514.283 276.923 514.021 276.771C513.763 276.62 513.556 276.592 513.401 276.687C513.247 276.779 513.17 276.981 513.17 277.294C513.17 277.596 513.245 277.885 513.397 278.159C513.549 278.433 513.76 278.649 514.03 278.807C514.294 278.961 514.5 278.992 514.649 278.9C514.801 278.81 514.877 278.607 514.877 278.291ZM514.751 275.117C514.751 274.84 514.687 274.582 514.561 274.342C514.434 274.099 514.256 273.91 514.025 273.775C513.798 273.642 513.621 273.62 513.494 273.709C513.368 273.798 513.305 273.985 513.305 274.272C513.305 274.555 513.368 274.82 513.494 275.066C513.621 275.313 513.799 275.503 514.03 275.638C514.26 275.773 514.437 275.79 514.561 275.69C514.687 275.591 514.751 275.4 514.751 275.117ZM518.435 275.839L518.435 277.138L519.215 277.594L519.215 278.629L518.435 278.173L518.435 280.81C518.435 281.005 518.468 281.164 518.532 281.286C518.597 281.409 518.721 281.523 518.903 281.63C519.038 281.709 519.158 281.767 519.262 281.805L519.262 282.875C519.023 282.82 518.777 282.718 518.524 282.571C517.669 282.071 517.234 281.317 517.217 280.308L517.217 277.461L516.551 277.072L516.551 276.037L517.217 276.426L517.217 275.127L518.435 275.839ZM524.004 283.082C524.004 283.929 523.848 284.498 523.536 284.791C523.225 285.081 522.789 285.063 522.23 284.736C521.735 284.447 521.34 283.996 521.045 283.384L520.99 283.914L519.894 283.273L519.894 275.773L521.112 276.485L521.112 279.176C521.393 278.959 521.763 278.985 522.221 279.252C522.778 279.578 523.213 280.07 523.528 280.729C523.846 281.386 524.004 282.145 524.004 283.004L524.004 283.082ZM522.786 282.268C522.786 281.734 522.713 281.302 522.567 280.973C522.421 280.64 522.203 280.389 521.913 280.22C521.526 279.993 521.259 280.021 521.112 280.304L521.112 282.389C521.261 282.847 521.531 283.19 521.922 283.418C522.315 283.648 522.574 283.575 522.698 283.198C522.757 283.017 522.786 282.707 522.786 282.268ZM527.668 287.816L526.45 287.104L526.45 281.665L524.995 281.337L524.995 280.19L527.537 280.62L527.668 280.697L527.668 287.816Z" fill="black"/>
<path d="M504.447 284.478L504.485 285.091C504.808 284.821 505.245 284.847 505.796 285.168C506.383 285.512 506.787 286.016 507.006 286.681C507.326 286.331 507.783 286.33 508.376 286.676C508.871 286.965 509.239 287.348 509.481 287.824C509.722 288.298 509.843 288.87 509.843 289.54L509.843 292.914L508.621 292.2L508.621 288.831C508.621 288.531 508.57 288.284 508.469 288.088C508.368 287.889 508.189 287.714 507.933 287.565C507.568 287.351 507.315 287.405 507.175 287.727L507.179 291.357L505.96 290.645L505.96 287.281C505.96 286.975 505.908 286.723 505.804 286.526C505.7 286.328 505.523 286.157 505.273 286.01C504.928 285.808 504.677 285.828 504.523 286.07L504.523 289.805L503.304 289.094L503.304 283.81L504.447 284.478ZM512.883 294.788C512.214 294.397 511.669 293.841 511.247 293.119C510.828 292.399 510.619 291.644 510.619 290.853L510.619 290.716C510.619 290.185 510.708 289.764 510.885 289.45C511.062 289.134 511.312 288.958 511.635 288.922C511.961 288.885 512.332 288.988 512.748 289.231C513.372 289.595 513.862 290.11 514.219 290.774C514.579 291.44 514.759 292.191 514.759 293.028L514.759 293.604L511.854 291.907C511.894 292.275 512.012 292.62 512.208 292.944C512.408 293.268 512.66 293.52 512.963 293.697C513.432 293.971 513.799 293.989 514.063 293.749L514.662 294.875C514.479 295.068 514.232 295.158 513.92 295.145C513.608 295.129 513.262 295.01 512.883 294.788ZM512.744 290.371C512.502 290.229 512.305 290.209 512.154 290.309C512.005 290.411 511.909 290.625 511.867 290.952L513.562 291.942L513.562 291.83C513.556 291.514 513.483 291.231 513.342 290.979C513.202 290.725 513.002 290.522 512.744 290.371ZM516.913 290.463L516.913 291.762L517.693 292.218L517.693 293.253L516.913 292.797L516.913 295.434C516.913 295.629 516.946 295.788 517.01 295.91C517.075 296.033 517.199 296.147 517.381 296.254C517.516 296.333 517.636 296.391 517.74 296.429L517.74 297.499C517.501 297.444 517.255 297.342 517.002 297.195C516.147 296.695 515.712 295.941 515.695 294.932L515.695 292.085L515.029 291.696L515.029 290.661L515.695 291.05L515.695 289.751L516.913 290.463ZM521.015 299.442C520.959 299.282 520.918 299.101 520.893 298.897C520.598 299.105 520.214 299.072 519.742 298.796C519.295 298.535 518.924 298.168 518.629 297.696C518.337 297.226 518.191 296.763 518.191 296.307C518.191 295.747 518.369 295.422 518.726 295.331C519.086 295.242 519.604 295.393 520.282 295.786L520.843 296.114L520.843 295.811C520.843 295.567 520.788 295.339 520.678 295.129C520.571 294.92 520.401 294.747 520.168 294.611C519.963 294.491 519.801 294.454 519.683 294.499C519.568 294.545 519.51 294.668 519.51 294.866L518.292 294.154C518.292 293.848 518.373 293.613 518.536 293.448C518.699 293.283 518.93 293.214 519.228 293.241C519.526 293.266 519.86 293.386 520.231 293.603C520.793 293.931 521.239 294.356 521.568 294.877C521.899 295.396 522.065 295.952 522.065 296.545L522.065 298.835C522.068 299.338 522.128 299.752 522.246 300.078L522.246 300.161L521.015 299.442ZM520.008 297.872C520.188 297.977 520.354 298.028 520.505 298.026C520.657 298.02 520.769 297.96 520.843 297.847L520.843 296.939L520.387 296.673C519.777 296.316 519.453 296.371 519.413 296.836L519.409 296.917C519.409 297.092 519.463 297.268 519.569 297.445C519.676 297.621 519.822 297.763 520.008 297.872ZM524.287 301.354L523.064 300.639L523.064 293.139L524.287 293.854L524.287 301.354Z" fill="black"/>
<rect width="38.9667" height="5.02366" transform="matrix(0.863415 0.504495 -0.863415 0.504495 494.348 256)" fill="#F4BB88"/>
<rect width="5.02306" height="39.8009" transform="matrix(0.863415 -0.504495 6.5402e-08 1 523.663 278.189)" fill="#903E00"/>
<rect width="38.9882" height="39.8035" transform="matrix(0.863415 0.504495 2.18652e-08 1 490 258.527)" fill="#EB8325"/>
</svg>
