<svg width="1170" height="703" viewBox="0 0 1170 703" fill="none" xmlns="http://www.w3.org/2000/svg">
<path d="M710.674 210.786L683.674 215V202.673L710.674 198.459V210.786Z" fill="#CF7335"/>
<path d="M683.674 215L664 203.516V191.189L683.674 202.673V215Z" fill="#F38436"/>
<path d="M718 195.088L710.674 210.786V198.459L718 182.761V195.088Z" fill="#9C5026"/>
<path d="M664 191.189L683.674 202.673L710.674 198.459L718 182.761L698.221 171.277L671.221 175.491L664 191.189Z" fill="#F4BB88"/>
<path d="M710.674 195.614L683.674 199.829V187.397L710.674 183.182V195.614Z" fill="#CF7335"/>
<path d="M683.674 199.829L664 188.345V175.913L683.674 187.397V199.829Z" fill="#F38436"/>
<path d="M718 179.916L710.674 195.614V183.182L718 167.484V179.916Z" fill="#9C5026"/>
<path d="M664 175.912L683.674 187.396L710.674 183.182L718 167.484L698.221 156L671.221 160.214L664 175.912Z" fill="#F4BB88"/>
<path d="M703.767 163.059L697.488 160.109L693.93 162.638L697.279 164.218L696.023 166.747L670.802 173.384L675.512 175.597L693.302 170.961L687.023 181.707L696.546 183.288L698.221 180.127L694.035 179.284L703.767 163.059Z" fill="black"/>
<path d="M796.779 261.793L769.779 266V253.59L796.779 249.383V261.793Z" fill="#CF7335"/>
<path d="M769.779 266L750 254.537V242.127L769.779 253.59V266Z" fill="#F38436"/>
<path d="M804 246.123L796.779 261.793V249.383L804 233.713V246.123Z" fill="#9C5026"/>
<path d="M750 242.126L769.779 253.59L796.779 249.383L804 233.713L784.326 222.25L757.326 226.456L750 242.126Z" fill="#F4BB88"/>
<path d="M796.779 246.544L769.779 250.75V238.34L796.779 234.134V246.544Z" fill="#CF7335"/>
<path d="M769.779 250.751L750 239.287V226.877L769.779 238.341V250.751Z" fill="#F38436"/>
<path d="M804 230.873L796.779 246.544V234.134L804 218.463V230.873Z" fill="#9C5026"/>
<path d="M750 226.877L769.779 238.34L796.779 234.134L804 218.463L784.326 207L757.326 211.207L750 226.877Z" fill="#F4BB88"/>
<path d="M789.872 214.046L783.593 211.102L780.035 213.731L783.384 215.308L782.023 217.832L756.802 224.353L761.616 226.667L779.407 222.039L773.128 232.661L782.651 234.239L784.326 231.084L780.14 230.242L789.872 214.046Z" fill="black"/>
<path d="M881.778 311.786L854.779 316V303.568L881.778 299.354V311.786Z" fill="#CF7335"/>
<path d="M854.779 316L835 304.516V292.084L854.779 303.568V316Z" fill="#F38436"/>
<path d="M888.999 296.087L881.779 311.786V299.354L888.999 283.655V296.087Z" fill="#9C5026"/>
<path d="M835 292.084L854.779 303.568L881.779 299.354L888.999 283.655L869.221 272.171L842.221 276.386L835 292.084Z" fill="#F4BB88"/>
<path d="M881.778 296.509L854.779 300.723V288.291L881.778 284.182V296.509Z" fill="#CF7335"/>
<path d="M854.779 300.723L835 289.239V276.807L854.779 288.291V300.723Z" fill="#F38436"/>
<path d="M888.999 280.811L881.779 296.509V284.182L888.999 268.484V280.811Z" fill="#9C5026"/>
<path d="M835 276.807L854.779 288.291L881.779 284.182L889 268.484L869.221 257L842.221 261.109L835 276.807Z" fill="#F4BB88"/>
<path d="M874.871 264.059L868.592 261.003L865.034 263.637L868.278 265.218L867.023 267.746L841.802 274.278L846.616 276.596L864.406 271.961L858.127 282.707L867.546 284.287L869.325 281.021L865.139 280.178L874.871 264.059Z" fill="black"/>
<path d="M623.779 160.786L596.779 165V152.568L623.779 148.459V160.786Z" fill="#CF7335"/>
<path d="M596.779 165L577 153.516V141.084L596.779 152.568V165Z" fill="#F38436"/>
<path d="M631 145.087L623.779 160.786V148.459L631 132.761V145.087Z" fill="#9C5026"/>
<path d="M577 141.084L596.779 152.568L623.779 148.459L631 132.761L611.325 121.277L584.326 125.491L577 141.084Z" fill="#F4BB88"/>
<path d="M623.779 145.509L596.779 149.723V137.396L623.779 133.182V145.509Z" fill="#CF7335"/>
<path d="M596.779 149.723L577 138.239V125.913L596.779 137.396V149.723Z" fill="#F38436"/>
<path d="M631 129.81L623.779 145.509V133.182L631 117.484V129.81Z" fill="#9C5026"/>
<path d="M577 125.913L596.779 137.396L623.779 133.182L631 117.484L611.325 106L584.326 110.214L577 125.913Z" fill="#F4BB88"/>
<path d="M616.872 113.059L610.593 110.109L607.035 112.637L610.384 114.218L609.023 116.746L583.802 123.278L588.616 125.596L606.407 120.961L600.128 131.707L609.651 133.287L611.325 130.127L607.139 129.284L616.872 113.059Z" fill="black"/>
</svg>
