<svg width="1170" height="703" viewBox="0 0 1170 703" fill="none" xmlns="http://www.w3.org/2000/svg">
<path d="M279.583 324.77V324.929V324.77C269.629 329.764 253.507 329.764 243.531 324.77C238.497 322.25 235.98 318.959 236.003 315.644V348.129C236.003 351.42 238.384 354.735 243.417 357.232C253.417 362.226 269.561 362.226 279.469 357.232L279.492 357.164V357.209C284.412 354.735 286.997 351.488 286.997 348.242V315.781C286.974 319.027 284.503 322.296 279.583 324.77Z" fill="#CB2B01"/>
<path d="M279.583 324.77L279.492 357.254C284.412 354.78 286.997 351.534 286.997 348.288V315.78C286.974 319.027 284.503 322.296 279.583 324.77Z" fill="#DD7626"/>
<path d="M243.395 357.254C253.394 362.248 269.538 362.248 279.446 357.254L279.537 324.77C269.606 329.764 253.485 329.764 243.508 324.77C238.497 322.25 235.98 318.959 236.003 315.644V348.129C235.98 351.443 238.384 354.735 243.395 357.254Z" fill="#EB8325"/>
<path d="M279.469 306.746C289.469 311.74 289.514 319.844 279.583 324.838C269.651 329.832 253.507 329.832 243.531 324.838C233.531 319.844 233.486 311.74 243.417 306.746C253.326 301.751 269.47 301.751 279.469 306.746Z" fill="#F4BB88"/>
<path d="M246.932 314.168L240.084 314.395L246.546 318.118L246.932 314.168Z" fill="#903E00"/>
<path d="M255.163 318.913L248.315 319.14L254.777 322.886L255.163 318.913Z" fill="#903E00"/>
<path d="M263.393 323.68L256.546 323.907L263.008 327.63L263.393 323.68Z" fill="#903E00"/>
<path d="M247.908 313.601L246.026 313.647L258.655 306.36L266.886 311.127L269.947 309.356L266.795 307.563L275.094 307.222L274.935 312.216L271.806 310.423L268.722 312.194L276.976 316.984L264.301 324.293L264.324 323.135L262.464 323.158L273.416 316.825L267.022 313.147L256.093 319.458L256.116 318.368H254.302L265.208 312.08L258.814 308.38L247.817 314.759L247.908 313.601Z" fill="#903E00"/>
<path d="M537.582 475.77V475.929V475.77C527.629 480.764 511.507 480.764 501.531 475.77C496.497 473.25 493.98 469.959 494.003 466.644V499.129C494.003 502.42 496.384 505.735 501.417 508.232C511.417 513.226 527.561 513.226 537.469 508.232L537.492 508.164V508.209C542.412 505.735 544.997 502.489 544.997 499.242V466.781C544.974 470.027 542.503 473.296 537.582 475.77Z" fill="#CB2B01"/>
<path d="M537.583 475.77L537.492 508.254C542.412 505.78 544.997 502.534 544.997 499.288V466.781C544.974 470.027 542.503 473.296 537.583 475.77Z" fill="#DD7626"/>
<path d="M501.395 508.254C511.394 513.249 527.538 513.249 537.446 508.254L537.537 475.77C527.606 480.764 511.485 480.764 501.508 475.77C496.497 473.25 493.98 469.959 494.003 466.644V499.129C493.98 502.443 496.384 505.735 501.395 508.254Z" fill="#EB8325"/>
<path d="M537.469 457.746C547.469 462.74 547.514 470.844 537.583 475.838C527.651 480.832 511.507 480.832 501.531 475.838C491.531 470.844 491.486 462.74 501.417 457.746C511.326 452.751 527.47 452.751 537.469 457.746Z" fill="#F4BB88"/>
<path d="M504.932 465.169L498.084 465.396L504.546 469.118L504.932 465.169Z" fill="#903E00"/>
<path d="M513.163 469.913L506.315 470.14L512.777 473.886L513.163 469.913Z" fill="#903E00"/>
<path d="M521.393 474.68L514.546 474.907L521.008 478.63L521.393 474.68Z" fill="#903E00"/>
<path d="M505.908 464.601L504.026 464.647L516.655 457.36L524.886 462.127L527.947 460.356L524.795 458.563L533.094 458.223L532.935 463.217L529.806 461.423L526.722 463.194L534.976 467.984L522.301 475.293L522.324 474.136L520.464 474.158L531.416 467.825L525.022 464.147L514.093 470.458L514.116 469.368H512.302L523.208 463.08L516.814 459.38L505.817 465.759L505.908 464.601Z" fill="#903E00"/>
</svg>
