<svg width="1170" height="703" viewBox="0 0 1170 703" fill="none" xmlns="http://www.w3.org/2000/svg">
<path d="M759.654 81.8042L725.601 62.0059V22.4093L759.654 42.2076V81.8042Z" fill="#E54C38"/>
<path d="M734.946 67.4152L710.346 81.8041V42.2076L734.946 27.8186V67.4152Z" fill="#882F1C"/>
<path d="M744.292 22.4094L710.346 42.2077L701 36.7983L734.946 17L744.292 22.4094Z" fill="#EBAEA8"/>
<path d="M759.654 42.2077L725.601 22.4094L734.946 17L769 36.7983L759.654 42.2077Z" fill="#EBAEA8"/>
<path d="M710.346 81.8041L701 76.2866V36.7982L710.346 42.2076V81.8041Z" fill="#E54C38"/>
<path d="M769 76.2866L759.654 81.8041V42.2076L769 36.7982V76.2866Z" fill="#882F1C"/>
<path d="M728.716 69.1462L738.061 74.6638L728.716 80.0731L719.37 74.6638L728.716 69.1462Z" fill="#EBAEA8"/>
<path d="M738.061 85.4824L728.715 91V80.0731L738.061 74.6637V85.4824Z" fill="#882F1C"/>
<path d="M728.715 91L719.37 85.4824V74.6637L728.715 80.0731V91Z" fill="#E54C38"/>
<path d="M728.716 54.8654L738.061 60.2748L728.716 65.7923L719.37 60.2748L728.716 54.8654Z" fill="#EBAEA8"/>
<path d="M738.061 71.2017L728.715 76.6111V65.7923L738.061 60.2747V71.2017Z" fill="#882F1C"/>
<path d="M728.715 76.6111L719.37 71.2017V60.2747L728.715 65.7923V76.6111Z" fill="#E54C38"/>
<path d="M728.716 40.5848L738.061 45.9942L728.716 51.4036L719.37 45.9942L728.716 40.5848Z" fill="#EBAEA8"/>
<path d="M738.061 56.9211L728.715 62.3305V51.4036L738.061 45.9942V56.9211Z" fill="#882F1C"/>
<path d="M728.715 62.3305L719.37 56.9211V45.9942L728.715 51.4036V62.3305Z" fill="#E54C38"/>
<path d="M742.681 48.8071C741.929 48.3744 741.284 48.158 740.747 48.0498C740.21 48.0498 739.78 48.158 739.458 48.4826C739.136 48.8071 739.028 49.2399 739.028 49.889C739.028 50.7545 739.351 51.7282 739.888 52.7019C740.317 53.4592 741.069 54.2165 742.144 55.1902C743.003 55.9475 743.54 56.3802 743.755 56.5966C744.077 56.9212 744.292 57.2457 744.507 57.4621C744.614 57.6785 744.722 58.003 744.722 58.2194C744.722 58.6522 744.507 58.8685 744.185 59.0849C743.863 59.1931 743.325 59.0849 742.681 58.7604C742.036 58.4358 741.607 58.003 741.284 57.3539C740.962 56.813 740.64 56.0557 740.532 55.2984L738.599 54.4329C738.706 55.8393 739.136 57.0294 739.78 58.1112C740.425 59.1931 741.392 60.0586 742.681 60.8159C743.54 61.3569 744.292 61.5732 744.829 61.6814C745.366 61.7896 745.904 61.5732 746.118 61.1405C746.441 60.7077 746.548 60.275 746.548 59.5177C746.548 58.7604 746.441 58.1112 746.118 57.4621C745.904 56.813 745.474 56.272 745.044 55.6229C744.614 55.082 743.863 54.3247 742.896 53.5674C741.929 52.7019 741.284 52.1609 741.069 51.7282C740.855 51.4036 740.747 51.0791 740.747 50.8627C740.747 50.5381 740.855 50.4299 741.069 50.3217C741.392 50.2136 741.821 50.3217 742.466 50.7545C743.003 51.0791 743.433 51.4036 743.755 51.8364C744.077 52.2691 744.185 52.81 744.292 53.4592L746.333 54.541C746.333 53.4592 746.011 52.4855 745.366 51.4036C744.829 50.4299 743.862 49.5644 742.681 48.8071Z" fill="black"/>
<path d="M751.167 53.8917C750.63 53.5671 750.093 53.3507 749.663 53.3507C749.234 53.3507 748.911 53.4589 748.589 53.7835C748.374 53.9999 748.159 54.5408 748.052 55.0817L749.771 56.4882C749.878 56.0554 749.986 55.7309 750.2 55.6227C750.415 55.5145 750.738 55.5145 751.06 55.7309C751.382 55.9472 751.597 56.1636 751.812 56.4882C752.027 56.8127 752.134 57.2455 752.134 57.57C752.134 58.0028 752.027 58.3274 751.704 58.4355C751.49 58.5437 751.06 58.4355 750.63 58.2192C750.63 58.2192 750.63 58.2192 750.523 58.2192L750.308 59.842C750.63 59.9502 750.952 60.0584 751.167 60.1665C751.49 60.3829 751.812 60.7075 752.134 61.2484C752.349 61.6812 752.564 62.2221 752.564 62.763C752.564 63.304 752.456 63.7367 752.134 63.9531C751.919 64.1695 751.49 64.1695 751.167 63.8449C750.845 63.6285 750.523 63.304 750.2 62.8712C749.986 62.4385 749.771 61.8975 749.771 61.3566L747.945 60.4911C748.052 61.4648 748.374 62.4385 748.911 63.4122C749.448 64.3858 750.2 65.035 751.167 65.5759C752.134 66.1168 752.886 66.225 753.531 65.9005C754.175 65.5759 754.497 64.9268 754.497 63.8449C754.497 63.1958 754.283 62.4385 753.96 61.7894C753.638 61.1402 753.208 60.4911 752.564 60.0584C753.531 60.0584 753.96 59.5174 753.96 58.4355C753.96 57.6782 753.746 56.9209 753.316 56.1636C752.779 55.1899 752.027 54.4326 751.167 53.8917Z" fill="black"/>
</svg>
